<?xml version="1.0" encoding="UTF-8" standalone="no"?>
<!-- Created with Inkscape (http://www.inkscape.org/) -->

<svg
   xmlns:dc="http://purl.org/dc/elements/1.1/"
   xmlns:cc="http://creativecommons.org/ns#"
   xmlns:rdf="http://www.w3.org/1999/02/22-rdf-syntax-ns#"
   xmlns:svg="http://www.w3.org/2000/svg"
   xmlns="http://www.w3.org/2000/svg"
   xmlns:sodipodi="http://sodipodi.sourceforge.net/DTD/sodipodi-0.dtd"
   xmlns:inkscape="http://www.inkscape.org/namespaces/inkscape"
   width="1920"
   height="1920"
   viewBox="0 0 507.99999 508.00001"
   version="1.1"
   id="svg8"
   inkscape:version="0.92.4 5da689c313, 2019-01-14"
   sodipodi:docname="Logo.svg"
   inkscape:export-filename="/home/es20490446e/Documents/Projects/Express Repository/Logo/Logo.svg.png"
   inkscape:export-xdpi="96"
   inkscape:export-ydpi="96">
  <defs
     id="defs2" />
  <sodipodi:namedview
     id="base"
     pagecolor="#ffffff"
     bordercolor="#666666"
     borderopacity="1.0"
     inkscape:pageopacity="0.0"
     inkscape:pageshadow="2"
     inkscape:zoom="0.15081262"
     inkscape:cx="493.04348"
     inkscape:cy="316.55776"
     inkscape:document-units="mm"
     inkscape:current-layer="layer1"
     showgrid="false"
     units="px"
     inkscape:showpageshadow="false"
     showborder="true"
     inkscape:window-width="1832"
     inkscape:window-height="1040"
     inkscape:window-x="88"
     inkscape:window-y="0"
     inkscape:window-maximized="1" />
  <metadata
     id="metadata5">
    <rdf:RDF>
      <cc:Work
         rdf:about="">
        <dc:format>image/svg+xml</dc:format>
        <dc:type
           rdf:resource="http://purl.org/dc/dcmitype/StillImage" />
        <dc:title></dc:title>
      </cc:Work>
    </rdf:RDF>
  </metadata>
  <g
     inkscape:label="Layer 1"
     inkscape:groupmode="layer"
     id="layer1"
     transform="translate(0,211.00002)">
    <g
       id="g4652"
       transform="matrix(0.92184265,0,0,0.92184265,456.77516,-313.93003)">
      <g
         transform="translate(-169.12816,323.28921)"
         id="g4577">
        <path
           style="fill:#19aeff;stroke:none;stroke-width:0.26458332px;stroke-linecap:butt;stroke-linejoin:miter;stroke-opacity:1"
           d="m -77.783059,17.08201 -157.881841,269.76172 25.34866,52.57125 131.491532,-228.65826 73.3574951,121.6542 52.3362609,-0.51734 z"
           id="path4568"
           inkscape:connector-curvature="0" />
        <path
           style="fill:#005c94;stroke:none;stroke-width:0.26458332px;stroke-linecap:butt;stroke-linejoin:miter;stroke-opacity:1"
           d="m -55.000273,150.27632 -23.803493,-39.55643 -131.512474,228.69509 317.56016,0.0228 25.70121,-52.87772 -262.27204,-0.93485 z"
           id="path4570"
           inkscape:connector-curvature="0" />
        <path
           style="fill:#0084c8;stroke:none;stroke-width:0.26458332px;stroke-linecap:butt;stroke-linejoin:miter;stroke-opacity:1"
           d="m -77.783059,17.082008 52.943662,-0.04616 157.784527,269.524252 -262.27204,-0.93491 29.23114,-53.21781 146.964818,-0.5138 z"
           id="path4572"
           inkscape:connector-curvature="0" />
      </g>
      <path
         inkscape:connector-curvature="0"
         id="path4568-4"
         d="m -245.86957,434.04593 -157.88184,-269.76172 25.34866,-52.57125 131.49153,228.65826 73.3575,-121.6542 52.33626,0.51734 z"
         style="fill:#19aeff;stroke:none;stroke-width:0.26458332px;stroke-linecap:butt;stroke-linejoin:miter;stroke-opacity:1" />
      <path
         inkscape:connector-curvature="0"
         id="path4570-6"
         d="m -223.08678,300.85162 -23.8035,39.55643 -131.51247,-228.69509 317.56016,-0.0228 25.70121,52.87772 -262.27204,0.93485 z"
         style="fill:#005c94;stroke:none;stroke-width:0.26458332px;stroke-linecap:butt;stroke-linejoin:miter;stroke-opacity:1" />
      <path
         sodipodi:nodetypes="ccccccc"
         inkscape:connector-curvature="0"
         id="path4572-4"
         d="m -220.99874,389.06676 28.07283,45.02537 157.78453,-269.52425 -262.27204,0.93491 29.23114,53.21781 146.96482,0.5138 z"
         style="fill:#0084c8;stroke:none;stroke-width:0.26458332px;stroke-linecap:butt;stroke-linejoin:miter;stroke-opacity:1" />
    </g>
  </g>
</svg>

