{
    "animate_icon": true,
    "autokill_daemon": 1,
    "autostart_daemon": 1,
    "daemon_priority": 0,
    "file_browser": "explore",
    "folder_as_path": true,
    "force_dark_theme": false,
    "icon_theme": "syncthing",
    "icons_in_menu": true,
    "infobox_style": "font_weight=\"bold\" font_size=\"large\"",
    "language": "None",
    "last_updatecheck": "1970-01-01T01:00:01",
    "max_cpus": 0,
    "minimize_on_start": true,
    "notification_for_error": false,
    "notification_for_folder": false,
    "notification_for_update": false,
    "st_autoupdate": false,
    "syncthing_arguments": "",
    "syncthing_binary": "/usr/bin/syncthing",
    "use_old_header": false,
    "window_position": null
}
